variable_freqdiv/simulation/qsim/variable_freqdiv.msim.vcd
$comment
	File created using the following command:
		vcd file variable_freqdiv.msim.vcd -direction
$end
$date
	Sun Nov 26 10:23:25 2023
$end
$version
	ModelSim Version 2020.1
$end
$timescale
	1ps
$end

$scope module variable_freqdiv_vhd_vec_tst $end
$var wire 1 ! checkM [5] $end
$var wire 1 " checkM [4] $end
$var wire 1 # checkM [3] $end
$var wire 1 $ checkM [2] $end
$var wire 1 % checkM [1] $end
$var wire 1 & checkM [0] $end
$var wire 1 ' checkN [5] $end
$var wire 1 ( checkN [4] $end
$var wire 1 ) checkN [3] $end
$var wire 1 * checkN [2] $end
$var wire 1 + checkN [1] $end
$var wire 1 , checkN [0] $end
$var wire 1 - CLK_base $end
$var wire 1 . div_value [5] $end
$var wire 1 / div_value [4] $end
$var wire 1 0 div_value [3] $end
$var wire 1 1 div_value [2] $end
$var wire 1 2 div_value [1] $end
$var wire 1 3 div_value [0] $end
$var wire 1 4 M_out $end
$var wire 1 5 M_set $end
$var wire 1 6 N_out $end
$var wire 1 7 N_set $end

$scope module i1 $end
$var wire 1 8 gnd $end
$var wire 1 9 vcc $end
$var wire 1 : unknown $end
$var wire 1 ; devoe $end
$var wire 1 < devclrn $end
$var wire 1 = devpor $end
$var wire 1 > ww_devoe $end
$var wire 1 ? ww_devclrn $end
$var wire 1 @ ww_devpor $end
$var wire 1 A ww_M_out $end
$var wire 1 B ww_M_set $end
$var wire 1 C ww_CLK_base $end
$var wire 1 D ww_div_value [5] $end
$var wire 1 E ww_div_value [4] $end
$var wire 1 F ww_div_value [3] $end
$var wire 1 G ww_div_value [2] $end
$var wire 1 H ww_div_value [1] $end
$var wire 1 I ww_div_value [0] $end
$var wire 1 J ww_N_out $end
$var wire 1 K ww_N_set $end
$var wire 1 L ww_checkM [5] $end
$var wire 1 M ww_checkM [4] $end
$var wire 1 N ww_checkM [3] $end
$var wire 1 O ww_checkM [2] $end
$var wire 1 P ww_checkM [1] $end
$var wire 1 Q ww_checkM [0] $end
$var wire 1 R ww_checkN [5] $end
$var wire 1 S ww_checkN [4] $end
$var wire 1 T ww_checkN [3] $end
$var wire 1 U ww_checkN [2] $end
$var wire 1 V ww_checkN [1] $end
$var wire 1 W ww_checkN [0] $end
$var wire 1 X \N_set~inputclkctrl_INCLK_bus\ [3] $end
$var wire 1 Y \N_set~inputclkctrl_INCLK_bus\ [2] $end
$var wire 1 Z \N_set~inputclkctrl_INCLK_bus\ [1] $end
$var wire 1 [ \N_set~inputclkctrl_INCLK_bus\ [0] $end
$var wire 1 \ \M_set~inputclkctrl_INCLK_bus\ [3] $end
$var wire 1 ] \M_set~inputclkctrl_INCLK_bus\ [2] $end
$var wire 1 ^ \M_set~inputclkctrl_INCLK_bus\ [1] $end
$var wire 1 _ \M_set~inputclkctrl_INCLK_bus\ [0] $end
$var wire 1 ` \CLK_base~inputclkctrl_INCLK_bus\ [3] $end
$var wire 1 a \CLK_base~inputclkctrl_INCLK_bus\ [2] $end
$var wire 1 b \CLK_base~inputclkctrl_INCLK_bus\ [1] $end
$var wire 1 c \CLK_base~inputclkctrl_INCLK_bus\ [0] $end
$var wire 1 d \~QUARTUS_CREATED_GND~I_combout\ $end
$var wire 1 e \~QUARTUS_CREATED_UNVM~~busy\ $end
$var wire 1 f \M_out~output_o\ $end
$var wire 1 g \N_out~output_o\ $end
$var wire 1 h \checkM[5]~output_o\ $end
$var wire 1 i \checkM[4]~output_o\ $end
$var wire 1 j \checkM[3]~output_o\ $end
$var wire 1 k \checkM[2]~output_o\ $end
$var wire 1 l \checkM[1]~output_o\ $end
$var wire 1 m \checkM[0]~output_o\ $end
$var wire 1 n \checkN[5]~output_o\ $end
$var wire 1 o \checkN[4]~output_o\ $end
$var wire 1 p \checkN[3]~output_o\ $end
$var wire 1 q \checkN[2]~output_o\ $end
$var wire 1 r \checkN[1]~output_o\ $end
$var wire 1 s \checkN[0]~output_o\ $end
$var wire 1 t \div_value[0]~input_o\ $end
$var wire 1 u \M_set~input_o\ $end
$var wire 1 v \M_set~inputclkctrl_outclk\ $end
$var wire 1 w \div_value[1]~input_o\ $end
$var wire 1 x \inst|inst~1_combout\ $end
$var wire 1 y \CLK_base~input_o\ $end
$var wire 1 z \CLK_base~inputclkctrl_outclk\ $end
$var wire 1 { \div_M|auto_generated|counter_comb_bita0~combout\ $end
$var wire 1 | \i~combout\ $end
$var wire 1 } \div_M|auto_generated|counter_comb_bita0~COUT\ $end
$var wire 1 ~ \div_M|auto_generated|counter_comb_bita1~combout\ $end
$var wire 1 !! \div_M|auto_generated|counter_comb_bita1~COUT\ $end
$var wire 1 "! \div_M|auto_generated|counter_comb_bita2~combout\ $end
$var wire 1 #! \div_value[2]~input_o\ $end
$var wire 1 $! \div_M|auto_generated|counter_comb_bita2~COUT\ $end
$var wire 1 %! \div_M|auto_generated|counter_comb_bita3~combout\ $end
$var wire 1 &! \div_value[3]~input_o\ $end
$var wire 1 '! \div_M|auto_generated|counter_comb_bita3~COUT\ $end
$var wire 1 (! \div_M|auto_generated|counter_comb_bita4~combout\ $end
$var wire 1 )! \div_value[4]~input_o\ $end
$var wire 1 *! \div_M|auto_generated|counter_comb_bita4~COUT\ $end
$var wire 1 +! \div_M|auto_generated|counter_comb_bita5~combout\ $end
$var wire 1 ,! \div_value[5]~input_o\ $end
$var wire 1 -! \div_M|auto_generated|counter_comb_bita5~COUT\ $end
$var wire 1 .! \div_M|auto_generated|counter_comb_bita5~0_combout\ $end
$var wire 1 /! \inst|inst~0_combout\ $end
$var wire 1 0! \inst|inst2~0_combout\ $end
$var wire 1 1! \N_set~input_o\ $end
$var wire 1 2! \N_set~inputclkctrl_outclk\ $end
$var wire 1 3! \inst8|inst~0_combout\ $end
$var wire 1 4! \inst8|inst~1_combout\ $end
$var wire 1 5! \div_M10|auto_generated|counter_comb_bita0~combout\ $end
$var wire 1 6! \i1~combout\ $end
$var wire 1 7! \div_M10|auto_generated|counter_comb_bita0~COUT\ $end
$var wire 1 8! \div_M10|auto_generated|counter_comb_bita1~combout\ $end
$var wire 1 9! \div_M10|auto_generated|counter_comb_bita1~COUT\ $end
$var wire 1 :! \div_M10|auto_generated|counter_comb_bita2~combout\ $end
$var wire 1 ;! \div_M10|auto_generated|counter_comb_bita2~COUT\ $end
$var wire 1 <! \div_M10|auto_generated|counter_comb_bita3~combout\ $end
$var wire 1 =! \div_M10|auto_generated|counter_comb_bita3~COUT\ $end
$var wire 1 >! \div_M10|auto_generated|counter_comb_bita4~combout\ $end
$var wire 1 ?! \div_M10|auto_generated|counter_comb_bita4~COUT\ $end
$var wire 1 @! \div_M10|auto_generated|counter_comb_bita5~combout\ $end
$var wire 1 A! \div_M10|auto_generated|counter_comb_bita5~COUT\ $end
$var wire 1 B! \div_M10|auto_generated|counter_comb_bita5~0_combout\ $end
$var wire 1 C! \inst8|inst2~0_combout\ $end
$var wire 1 D! \div_M|auto_generated|counter_reg_bit\ [5] $end
$var wire 1 E! \div_M|auto_generated|counter_reg_bit\ [4] $end
$var wire 1 F! \div_M|auto_generated|counter_reg_bit\ [3] $end
$var wire 1 G! \div_M|auto_generated|counter_reg_bit\ [2] $end
$var wire 1 H! \div_M|auto_generated|counter_reg_bit\ [1] $end
$var wire 1 I! \div_M|auto_generated|counter_reg_bit\ [0] $end
$var wire 1 J! \div_M10|auto_generated|counter_reg_bit\ [5] $end
$var wire 1 K! \div_M10|auto_generated|counter_reg_bit\ [4] $end
$var wire 1 L! \div_M10|auto_generated|counter_reg_bit\ [3] $end
$var wire 1 M! \div_M10|auto_generated|counter_reg_bit\ [2] $end
$var wire 1 N! \div_M10|auto_generated|counter_reg_bit\ [1] $end
$var wire 1 O! \div_M10|auto_generated|counter_reg_bit\ [0] $end
$var wire 1 P! \inst4|latches\ [5] $end
$var wire 1 Q! \inst4|latches\ [4] $end
$var wire 1 R! \inst4|latches\ [3] $end
$var wire 1 S! \inst4|latches\ [2] $end
$var wire 1 T! \inst4|latches\ [1] $end
$var wire 1 U! \inst4|latches\ [0] $end
$var wire 1 V! \inst5|latches\ [5] $end
$var wire 1 W! \inst5|latches\ [4] $end
$var wire 1 X! \inst5|latches\ [3] $end
$var wire 1 Y! \inst5|latches\ [2] $end
$var wire 1 Z! \inst5|latches\ [1] $end
$var wire 1 [! \inst5|latches\ [0] $end
$upscope $end
$upscope $end
$enddefinitions $end
#0
$dumpvars
0-
x4
05
x6
07
08
19
x:
1;
1<
1=
1>
1?
1@
xA
0B
0C
xJ
0K
0d
ze
xf
xg
xh
xi
xj
xk
xl
xm
xn
xo
xp
xq
xr
xs
0t
0u
0v
0w
xx
0y
0z
1{
1|
1}
1~
0!!
1"!
0#!
1$!
1%!
0&!
0'!
1(!
0)!
1*!
1+!
0,!
0-!
1.!
x/!
x0!
01!
02!
x3!
x4!
15!
16!
17!
18!
09!
1:!
1;!
1<!
0=!
1>!
1?!
1@!
0A!
1B!
xC!
0.
0/
00
01
02
03
0D
0E
0F
0G
0H
0I
xL
xM
xN
xO
xP
xQ
xR
xS
xT
xU
xV
xW
0D!
0E!
0F!
0G!
0H!
0I!
0J!
0K!
0L!
0M!
0N!
0O!
xP!
xQ!
xR!
xS!
xT!
xU!
xV!
xW!
xX!
xY!
xZ!
x[!
1\
1]
1^
0_
1`
1a
1b
0c
1X
1Y
1Z
0[
x!
x"
x#
x$
x%
x&
x'
x(
x)
x*
x+
x,
$end
#10000
1-
13
1C
1I
1t
1y
1c
10!
1C!
1g
1f
1z
1J
1A
16
14
xI!
xH!
xG!
xF!
xE!
xD!
xO!
xN!
xM!
xL!
xK!
xJ!
x@!
xA!
x>!
x?!
x<!
x=!
x:!
x;!
x8!
x9!
x5!
x7!
x+!
x-!
x(!
x*!
x%!
x'!
x"!
x$!
x~
x!!
x{
x}
x.!
xB!
x6!
xC!
x|
x0!
xf
xg
xA
xJ
x4
x6
#20000
0-
15
0C
1B
1u
0y
1_
0c
1|
0z
1v
1U!
0T!
0S!
0R!
0Q!
0P!
0h
0i
0j
0k
0l
1m
0/!
1x
0L
0M
0N
0O
0P
1Q
1&
0%
0$
0#
0"
0!
#30000
1-
1C
1y
1c
1z
1I!
0H!
0G!
0F!
0E!
0D!
0{
0}
0~
1!!
0"!
0$!
0%!
1'!
0(!
0*!
0+!
1-!
0.!
00!
0f
0A
04
#40000
0-
05
0C
0B
0u
0y
0_
0c
0|
0z
0v
#50000
1-
03
1C
0I
0t
1y
1c
1z
0I!
1{
1}
1~
0!!
1"!
1$!
1%!
0'!
1(!
1*!
1+!
0-!
1.!
1|
10!
1f
1A
14
#60000
0-
0C
0y
0c
0z
#70000
1-
12
1C
1H
1w
1y
1c
1z
1I!
0{
0}
0~
1!!
0"!
0$!
0%!
1'!
0(!
0*!
0+!
1-!
0.!
0|
00!
0f
0A
04
#80000
0-
17
0C
1K
11!
0y
1[
0c
16!
0z
12!
0X!
0W!
0V!
0Y!
0[!
1Z!
1r
0s
0q
0n
0o
0p
14!
03!
1V
0W
0U
0R
0S
0T
0,
1+
0*
0)
0(
0'
#90000
1-
1C
1y
1c
1z
0I!
0O!
1N!
0M!
0L!
0K!
0J!
19!
15!
17!
1{
1}
1~
0!!
08!
0:!
0;!
0<!
1=!
1"!
1$!
1%!
0'!
0>!
0?!
0@!
1A!
1(!
1*!
1+!
0-!
0B!
0C!
1.!
0g
1|
10!
0J
1f
06
1A
14
#100000
0-
07
0C
0K
01!
0y
0[
0c
06!
0z
02!
#110000
1-
02
1C
0H
0w
1y
1c
1z
1I!
1O!
0N!
18!
09!
05!
07!
0{
0}
0~
1!!
08!
19!
1:!
1;!
1<!
0=!
0:!
0;!
0"!
0$!
0%!
1'!
0<!
1=!
1>!
1?!
1@!
0A!
0>!
0?!
0(!
0*!
0+!
1-!
0@!
1A!
1B!
16!
1C!
0B!
0.!
1g
0|
00!
06!
0C!
1J
0g
0f
16
0J
0A
06
04
#120000
0-
0C
0y
0c
0z
#130000
1-
1C
1y
1c
1z
0I!
0O!
15!
17!
1{
1}
1~
0!!
18!
09!
1:!
1;!
1"!
1$!
1%!
0'!
1<!
0=!
1>!
1?!
1(!
1*!
1+!
0-!
1@!
0A!
1B!
1.!
1|
10!
16!
1C!
1g
1f
1J
1A
16
14
#140000
0-
0C
0y
0c
0z
#150000
1-
1C
1y
1c
1z
1I!
1N!
08!
19!
0{
0}
0~
1!!
0:!
0;!
0<!
1=!
0"!
0$!
0%!
1'!
0>!
0?!
0@!
1A!
0(!
0*!
0+!
1-!
0B!
06!
0C!
0.!
0g
0|
00!
0J
0f
06
0A
04
#160000
0-
0C
0y
0c
0z
#170000
1-
1C
1y
1c
1z
0I!
1O!
0N!
18!
09!
05!
07!
1{
1}
1~
0!!
08!
19!
1:!
1;!
1<!
0=!
0:!
0;!
1"!
1$!
1%!
0'!
0<!
1=!
1>!
1?!
1@!
0A!
0>!
0?!
1(!
1*!
1+!
0-!
0@!
1A!
1B!
16!
1C!
0B!
1.!
1g
1|
10!
06!
0C!
1J
0g
1f
16
0J
1A
06
14
#180000
0-
0C
0y
0c
0z
#190000
1-
1C
1y
1c
1z
1I!
0O!
15!
17!
0{
0}
0~
1!!
18!
09!
1:!
1;!
0"!
0$!
0%!
1'!
1<!
0=!
1>!
1?!
0(!
0*!
0+!
1-!
1@!
0A!
1B!
0.!
0|
00!
16!
1C!
1g
0f
1J
0A
16
04
#200000
0-
0C
0y
0c
0z
#210000
1-
1C
1y
1c
1z
0I!
1N!
08!
19!
1{
1}
1~
0!!
0:!
0;!
0<!
1=!
1"!
1$!
1%!
0'!
0>!
0?!
0@!
1A!
1(!
1*!
1+!
0-!
0B!
06!
0C!
1.!
0g
1|
10!
0J
1f
06
1A
14
#220000
0-
0C
0y
0c
0z
#230000
1-
1C
1y
1c
1z
1I!
1O!
0N!
18!
09!
05!
07!
0{
0}
0~
1!!
08!
19!
1:!
1;!
1<!
0=!
0:!
0;!
0"!
0$!
0%!
1'!
0<!
1=!
1>!
1?!
1@!
0A!
0>!
0?!
0(!
0*!
0+!
1-!
0@!
1A!
1B!
16!
1C!
0B!
0.!
1g
0|
00!
06!
0C!
1J
0g
0f
16
0J
0A
06
04
#240000
0-
0C
0y
0c
0z
#250000
1-
1C
1y
1c
1z
0I!
0O!
15!
17!
1{
1}
1~
0!!
18!
09!
1:!
1;!
1"!
1$!
1%!
0'!
1<!
0=!
1>!
1?!
1(!
1*!
1+!
0-!
1@!
0A!
1B!
1.!
1|
10!
16!
1C!
1g
1f
1J
1A
16
14
#260000
0-
0C
0y
0c
0z
#270000
1-
1C
1y
1c
1z
1I!
1N!
08!
19!
0{
0}
0~
1!!
0:!
0;!
0<!
1=!
0"!
0$!
0%!
1'!
0>!
0?!
0@!
1A!
0(!
0*!
0+!
1-!
0B!
06!
0C!
0.!
0g
0|
00!
0J
0f
06
0A
04
#280000
0-
0C
0y
0c
0z
#290000
1-
1C
1y
1c
1z
0I!
1O!
0N!
18!
09!
05!
07!
1{
1}
1~
0!!
08!
19!
1:!
1;!
1<!
0=!
0:!
0;!
1"!
1$!
1%!
0'!
0<!
1=!
1>!
1?!
1@!
0A!
0>!
0?!
1(!
1*!
1+!
0-!
0@!
1A!
1B!
16!
1C!
0B!
1.!
1g
1|
10!
06!
0C!
1J
0g
1f
16
0J
1A
06
14
#300000
0-
0C
0y
0c
0z
#310000
1-
1C
1y
1c
1z
1I!
0O!
15!
17!
0{
0}
0~
1!!
18!
09!
1:!
1;!
0"!
0$!
0%!
1'!
1<!
0=!
1>!
1?!
0(!
0*!
0+!
1-!
1@!
0A!
1B!
0.!
0|
00!
16!
1C!
1g
0f
1J
0A
16
04
#320000
0-
0C
0y
0c
0z
#330000
1-
1C
1y
1c
1z
0I!
1N!
08!
19!
1{
1}
1~
0!!
0:!
0;!
0<!
1=!
1"!
1$!
1%!
0'!
0>!
0?!
0@!
1A!
1(!
1*!
1+!
0-!
0B!
06!
0C!
1.!
0g
1|
10!
0J
1f
06
1A
14
#340000
0-
0C
0y
0c
0z
#350000
1-
1C
1y
1c
1z
1I!
1O!
0N!
18!
09!
05!
07!
0{
0}
0~
1!!
08!
19!
1:!
1;!
1<!
0=!
0:!
0;!
0"!
0$!
0%!
1'!
0<!
1=!
1>!
1?!
1@!
0A!
0>!
0?!
0(!
0*!
0+!
1-!
0@!
1A!
1B!
16!
1C!
0B!
0.!
1g
0|
00!
06!
0C!
1J
0g
0f
16
0J
0A
06
04
#360000
0-
0C
0y
0c
0z
#370000
1-
1C
1y
1c
1z
0I!
0O!
15!
17!
1{
1}
1~
0!!
18!
09!
1:!
1;!
1"!
1$!
1%!
0'!
1<!
0=!
1>!
1?!
1(!
1*!
1+!
0-!
1@!
0A!
1B!
1.!
1|
10!
16!
1C!
1g
1f
1J
1A
16
14
#380000
0-
0C
0y
0c
0z
#390000
1-
1C
1y
1c
1z
1I!
1N!
08!
19!
0{
0}
0~
1!!
0:!
0;!
0<!
1=!
0"!
0$!
0%!
1'!
0>!
0?!
0@!
1A!
0(!
0*!
0+!
1-!
0B!
06!
0C!
0.!
0g
0|
00!
0J
0f
06
0A
04
#400000
0-
0C
0y
0c
0z
#410000
1-
1C
1y
1c
1z
0I!
1O!
0N!
18!
09!
05!
07!
1{
1}
1~
0!!
08!
19!
1:!
1;!
1<!
0=!
0:!
0;!
1"!
1$!
1%!
0'!
0<!
1=!
1>!
1?!
1@!
0A!
0>!
0?!
1(!
1*!
1+!
0-!
0@!
1A!
1B!
16!
1C!
0B!
1.!
1g
1|
10!
06!
0C!
1J
0g
1f
16
0J
1A
06
14
#420000
0-
0C
0y
0c
0z
#430000
1-
1C
1y
1c
1z
1I!
0O!
15!
17!
0{
0}
0~
1!!
18!
09!
1:!
1;!
0"!
0$!
0%!
1'!
1<!
0=!
1>!
1?!
0(!
0*!
0+!
1-!
1@!
0A!
1B!
0.!
0|
00!
16!
1C!
1g
0f
1J
0A
16
04
#440000
0-
0C
0y
0c
0z
#450000
1-
1C
1y
1c
1z
0I!
1N!
08!
19!
1{
1}
1~
0!!
0:!
0;!
0<!
1=!
1"!
1$!
1%!
0'!
0>!
0?!
0@!
1A!
1(!
1*!
1+!
0-!
0B!
06!
0C!
1.!
0g
1|
10!
0J
1f
06
1A
14
#460000
0-
0C
0y
0c
0z
#470000
1-
1C
1y
1c
1z
1I!
1O!
0N!
18!
09!
05!
07!
0{
0}
0~
1!!
08!
19!
1:!
1;!
1<!
0=!
0:!
0;!
0"!
0$!
0%!
1'!
0<!
1=!
1>!
1?!
1@!
0A!
0>!
0?!
0(!
0*!
0+!
1-!
0@!
1A!
1B!
16!
1C!
0B!
0.!
1g
0|
00!
06!
0C!
1J
0g
0f
16
0J
0A
06
04
#480000
0-
0C
0y
0c
0z
#490000
1-
1C
1y
1c
1z
0I!
0O!
15!
17!
1{
1}
1~
0!!
18!
09!
1:!
1;!
1"!
1$!
1%!
0'!
1<!
0=!
1>!
1?!
1(!
1*!
1+!
0-!
1@!
0A!
1B!
1.!
1|
10!
16!
1C!
1g
1f
1J
1A
16
14
